Library\Bee\artifacts\mvdfrm\UnityEditor.UI.ref.dll_4C98D3F7040CD4F5.mvfrm
Library\Bee\artifacts\mvdfrm\UnityEngine.UI.ref.dll_08FEAA520A2EFD60.mvfrm
Library\Bee\artifacts\mvdfrm\UnityEditor.Graphs.dll_886C6A5EA17AB8BE.mvfrm
Library\Bee\artifacts\mvdfrm\UnityEditor.CoreModule.dll_B1466E5B8EB9BA8C.mvfrm
Library\Bee\artifacts\mvdfrm\UnityEditor.DeviceSimulatorModule.dll_8D3CE90EE665ECF5.mvfrm
Library\Bee\artifacts\mvdfrm\UnityEditor.DiagnosticsModule.dll_FF833A8662765A03.mvfrm
Library\Bee\artifacts\mvdfrm\UnityEditor.dll_FACD79160A8D6949.mvfrm
Library\Bee\artifacts\mvdfrm\UnityEditor.GraphViewModule.dll_E50D68AA9223DB7A.mvfrm
Library\Bee\artifacts\mvdfrm\UnityEditor.PackageManagerUIModule.dll_8189208D774DF0E8.mvfrm
Library\Bee\artifacts\mvdfrm\UnityEditor.QuickSearchModule.dll_8A92BB93BB4D565C.mvfrm
Library\Bee\artifacts\mvdfrm\UnityEditor.SceneTemplateModule.dll_60A920BF000D385D.mvfrm
Library\Bee\artifacts\mvdfrm\UnityEditor.TextCoreFontEngineModule.dll_4753B8439F303E8A.mvfrm
Library\Bee\artifacts\mvdfrm\UnityEditor.TextCoreTextEngineModule.dll_8F3BEEB52EB3F7A8.mvfrm
Library\Bee\artifacts\mvdfrm\UnityEditor.UIBuilderModule.dll_399615C704DC54AE.mvfrm
Library\Bee\artifacts\mvdfrm\UnityEditor.UIElementsModule.dll_0A0A2EB8CD9AB648.mvfrm
Library\Bee\artifacts\mvdfrm\UnityEditor.UIElementsSamplesModule.dll_03A5A0CFDEC967A5.mvfrm
Library\Bee\artifacts\mvdfrm\UnityEditor.UIServiceModule.dll_72882729EE13A4C8.mvfrm
Library\Bee\artifacts\mvdfrm\UnityEditor.UnityConnectModule.dll_5DD146EAD92FAF42.mvfrm
Library\Bee\artifacts\mvdfrm\UnityEngine.AccessibilityModule.dll_934E8C5600835FFA.mvfrm
Library\Bee\artifacts\mvdfrm\UnityEngine.AIModule.dll_A80004BCC063AF60.mvfrm
Library\Bee\artifacts\mvdfrm\UnityEngine.AndroidJNIModule.dll_8853178C16BA251E.mvfrm
Library\Bee\artifacts\mvdfrm\UnityEngine.AnimationModule.dll_B392E4D36C80B020.mvfrm
Library\Bee\artifacts\mvdfrm\UnityEngine.ARModule.dll_6172C9C01D810E29.mvfrm
Library\Bee\artifacts\mvdfrm\UnityEngine.AssetBundleModule.dll_CE7BEE851DB40B4E.mvfrm
Library\Bee\artifacts\mvdfrm\UnityEngine.AudioModule.dll_B0BE292609A10912.mvfrm
Library\Bee\artifacts\mvdfrm\UnityEngine.ClothModule.dll_17A68620E3BDE7F6.mvfrm
Library\Bee\artifacts\mvdfrm\UnityEngine.ClusterInputModule.dll_DD6DBC008AB78208.mvfrm
Library\Bee\artifacts\mvdfrm\UnityEngine.ClusterRendererModule.dll_92E9AB805620FA79.mvfrm
Library\Bee\artifacts\mvdfrm\UnityEngine.CoreModule.dll_D46741AE36BF25B7.mvfrm
Library\Bee\artifacts\mvdfrm\UnityEngine.CrashReportingModule.dll_2D0900146CA0F1AF.mvfrm
Library\Bee\artifacts\mvdfrm\UnityEngine.DirectorModule.dll_E15E0C78D1CBA994.mvfrm
Library\Bee\artifacts\mvdfrm\UnityEngine.dll_2D71BFEE6900F62E.mvfrm
Library\Bee\artifacts\mvdfrm\UnityEngine.DSPGraphModule.dll_E6AF6DE2442C7AB5.mvfrm
Library\Bee\artifacts\mvdfrm\UnityEngine.GameCenterModule.dll_B2A061A6DCFB160F.mvfrm
Library\Bee\artifacts\mvdfrm\UnityEngine.GIModule.dll_403C4DCA5C12977A.mvfrm
Library\Bee\artifacts\mvdfrm\UnityEngine.GridModule.dll_B1D85D9C4F13BBAE.mvfrm
Library\Bee\artifacts\mvdfrm\UnityEngine.HotReloadModule.dll_34DBA2D947B3CBA2.mvfrm
Library\Bee\artifacts\mvdfrm\UnityEngine.ImageConversionModule.dll_FEDBA930D845B26D.mvfrm
Library\Bee\artifacts\mvdfrm\UnityEngine.IMGUIModule.dll_E91DC88CCFD29CF3.mvfrm
Library\Bee\artifacts\mvdfrm\UnityEngine.InputLegacyModule.dll_5FC109A3B5A5C13F.mvfrm
Library\Bee\artifacts\mvdfrm\UnityEngine.InputModule.dll_1733F0D67FD92DB6.mvfrm
Library\Bee\artifacts\mvdfrm\UnityEngine.JSONSerializeModule.dll_F3661591FFBEC084.mvfrm
Library\Bee\artifacts\mvdfrm\UnityEngine.LocalizationModule.dll_1BBA865322337501.mvfrm
Library\Bee\artifacts\mvdfrm\UnityEngine.ParticleSystemModule.dll_801B4960DAB27D3D.mvfrm
Library\Bee\artifacts\mvdfrm\UnityEngine.PerformanceReportingModule.dll_9FE29EA9926C3176.mvfrm
Library\Bee\artifacts\mvdfrm\UnityEngine.Physics2DModule.dll_0038D4C40D7DA7B5.mvfrm
Library\Bee\artifacts\mvdfrm\UnityEngine.PhysicsModule.dll_5BD83FECC89E6A23.mvfrm
Library\Bee\artifacts\mvdfrm\UnityEngine.ProfilerModule.dll_13A445AF6B2530A1.mvfrm
Library\Bee\artifacts\mvdfrm\UnityEngine.RuntimeInitializeOnLoadManagerInitializerModule.dll_19364985D97E027E.mvfrm
Library\Bee\artifacts\mvdfrm\UnityEngine.ScreenCaptureModule.dll_0D4DC317142AECE6.mvfrm
Library\Bee\artifacts\mvdfrm\UnityEngine.SharedInternalsModule.dll_82ECE8064F73ADBD.mvfrm
Library\Bee\artifacts\mvdfrm\UnityEngine.SpriteMaskModule.dll_9BCCD436FE6AAB89.mvfrm
Library\Bee\artifacts\mvdfrm\UnityEngine.SpriteShapeModule.dll_E7DD1BDFD3564358.mvfrm
Library\Bee\artifacts\mvdfrm\UnityEngine.StreamingModule.dll_6827D223BC08675E.mvfrm
Library\Bee\artifacts\mvdfrm\UnityEngine.SubstanceModule.dll_44D2E66D075B656C.mvfrm
Library\Bee\artifacts\mvdfrm\UnityEngine.SubsystemsModule.dll_067A3A98CCB2939C.mvfrm
Library\Bee\artifacts\mvdfrm\UnityEngine.TerrainModule.dll_761EBB5B9E5CB311.mvfrm
Library\Bee\artifacts\mvdfrm\UnityEngine.TerrainPhysicsModule.dll_8095F233F3F577CA.mvfrm
Library\Bee\artifacts\mvdfrm\UnityEngine.TextCoreFontEngineModule.dll_C5B33396B22DFD55.mvfrm
Library\Bee\artifacts\mvdfrm\UnityEngine.TextCoreTextEngineModule.dll_0D9B6A0841B1B673.mvfrm
Library\Bee\artifacts\mvdfrm\UnityEngine.TextRenderingModule.dll_368D3521CB626CDB.mvfrm
Library\Bee\artifacts\mvdfrm\UnityEngine.TilemapModule.dll_151B22DCB619941A.mvfrm
Library\Bee\artifacts\mvdfrm\UnityEngine.TLSModule.dll_E4640015FEC8FA37.mvfrm
Library\Bee\artifacts\mvdfrm\UnityEngine.UIElementsModule.dll_0AB89C00CFDECF93.mvfrm
Library\Bee\artifacts\mvdfrm\UnityEngine.UIElementsNativeModule.dll_CC02D522E8C6610A.mvfrm
Library\Bee\artifacts\mvdfrm\UnityEngine.UIModule.dll_A373A2EA1CAAB50C.mvfrm
Library\Bee\artifacts\mvdfrm\UnityEngine.UmbraModule.dll_2B92D53E96C7B485.mvfrm
Library\Bee\artifacts\mvdfrm\UnityEngine.UNETModule.dll_670D899783CE1B30.mvfrm
Library\Bee\artifacts\mvdfrm\UnityEngine.UnityAnalyticsModule.dll_9FBABA2A86D9CF39.mvfrm
Library\Bee\artifacts\mvdfrm\UnityEngine.UnityConnectModule.dll_4B30CAF9D3B7AFED.mvfrm
Library\Bee\artifacts\mvdfrm\UnityEngine.UnityCurlModule.dll_E6AF8604DC94A20D.mvfrm
Library\Bee\artifacts\mvdfrm\UnityEngine.UnityTestProtocolModule.dll_BF6856C238C4BCFB.mvfrm
Library\Bee\artifacts\mvdfrm\UnityEngine.UnityWebRequestAssetBundleModule.dll_A526385F7D4134CA.mvfrm
Library\Bee\artifacts\mvdfrm\UnityEngine.UnityWebRequestAudioModule.dll_17DEF28818D6FC0E.mvfrm
Library\Bee\artifacts\mvdfrm\UnityEngine.UnityWebRequestModule.dll_107AB0DAE33A4CEC.mvfrm
Library\Bee\artifacts\mvdfrm\UnityEngine.UnityWebRequestTextureModule.dll_9F08D91FE495BFA3.mvfrm
Library\Bee\artifacts\mvdfrm\UnityEngine.UnityWebRequestWWWModule.dll_D85DAF64317172DF.mvfrm
Library\Bee\artifacts\mvdfrm\UnityEngine.VehiclesModule.dll_592105F84BF5792F.mvfrm
Library\Bee\artifacts\mvdfrm\UnityEngine.VFXModule.dll_65429884D53663A4.mvfrm
Library\Bee\artifacts\mvdfrm\UnityEngine.VideoModule.dll_D5C7AD90CC3324B7.mvfrm
Library\Bee\artifacts\mvdfrm\UnityEngine.VirtualTexturingModule.dll_F08F8991C174E195.mvfrm
Library\Bee\artifacts\mvdfrm\UnityEngine.VRModule.dll_F645C96FBE653A84.mvfrm
Library\Bee\artifacts\mvdfrm\UnityEngine.WindModule.dll_4AB61CD6C7F5A420.mvfrm
Library\Bee\artifacts\mvdfrm\UnityEngine.XRModule.dll_29048C74479F87E2.mvfrm
Library\Bee\artifacts\mvdfrm\UnityEditor.WebGL.Extensions.dll_6B376AE19BBA0AE4.mvfrm
Library\Bee\artifacts\mvdfrm\UnityEditor.WindowsStandalone.Extensions.dll_5040C300BC818BD4.mvfrm
Library\Bee\artifacts\mvdfrm\Unity.Plastic.Antlr3.Runtime.dll_DE4D4B60440E979F.mvfrm
Library\Bee\artifacts\mvdfrm\Unity.Plastic.Newtonsoft.Json.dll_7652B2907861B026.mvfrm
Library\Bee\artifacts\mvdfrm\Unity.VisualScripting.IonicZip.dll_C211DF44E6F41739.mvfrm
Library\Bee\artifacts\mvdfrm\Unity.VisualScripting.YamlDotNet.dll_E30F1A4DF6F9E213.mvfrm
Library\Bee\artifacts\mvdfrm\Unity.VisualScripting.Antlr3.Runtime.dll_947C412F27C2F232.mvfrm